^C:\USERS\ACER ASPIRE E5-571G\DOCUMENTS\VISUAL STUDIO 2015\PROJECTS\ФАЙЛЫ\ФАЙЛЫ\SOURCE.CPP
C:\USERS\ACER ASPIRE E5-571G\DOCUMENTS\VISUAL STUDIO 2015\PROJECTS\файлы\файлы\DEBUG\VC140.PDB
C:\USERS\ACER ASPIRE E5-571G\DOCUMENTS\VISUAL STUDIO 2015\PROJECTS\файлы\файлы\DEBUG\VC140.IDB
C:\USERS\ACER ASPIRE E5-571G\DOCUMENTS\VISUAL STUDIO 2015\PROJECTS\файлы\файлы\DEBUG\SOURCE.OBJ
